<svg width="172" height="173" viewBox="0 0 172 173" fill="none" xmlns="http://www.w3.org/2000/svg">
<g filter="url(#filter0_d)">
<circle cx="86.5" cy="88.5" r="48.5" fill="white"/>
<circle cx="86.5" cy="88.5" r="47" stroke="#E94656" stroke-width="3"/>
</g>
<path d="M87 142L94.7942 165.25H79.2058L87 142Z" fill="#E94656"/>
<circle cx="99.5" cy="145.5" r="3.5" fill="#CB2E3D"/>
<path d="M137.484 112.379L161.982 111.304L157.68 126.287L137.484 112.379Z" fill="#E94656"/>
<circle cx="144.299" cy="101.33" r="3.5" transform="rotate(-73.9786 144.299 101.33)" fill="#CB2E3D"/>
<path d="M124.823 41.661L138.392 21.2356L147.961 33.5411L124.823 41.661Z" fill="#E94656"/>
<circle cx="119.911" cy="29.6452" r="3.5" transform="rotate(-127.871 119.911 29.6452)" fill="#CB2E3D"/>
<path d="M31.9986 109.237L13.8583 125.737L7.57871 111.47L31.9986 109.237Z" fill="#E94656"/>
<circle cx="33.8315" cy="122.088" r="3.5" transform="rotate(66.2443 33.8315 122.088)" fill="#CB2E3D"/>
<path d="M59.7919 28.8723L38.2855 17.0914L49.7318 6.50923L59.7919 28.8723Z" fill="#E94656"/>
<circle cx="48.2376" cy="34.7884" r="3.5" transform="rotate(137.246 48.2376 34.7884)" fill="#CB2E3D"/>
<defs>
<filter id="filter0_d" x="34" y="40" width="105" height="105" filterUnits="userSpaceOnUse" color-interpolation-filters="sRGB">
<feFlood flood-opacity="0" result="BackgroundImageFix"/>
<feColorMatrix in="SourceAlpha" type="matrix" values="0 0 0 0 0 0 0 0 0 0 0 0 0 0 0 0 0 0 127 0"/>
<feOffset dy="4"/>
<feGaussianBlur stdDeviation="2"/>
<feColorMatrix type="matrix" values="0 0 0 0 0 0 0 0 0 0 0 0 0 0 0 0 0 0 0.25 0"/>
<feBlend mode="normal" in2="BackgroundImageFix" result="effect1_dropShadow"/>
<feBlend mode="normal" in="SourceGraphic" in2="effect1_dropShadow" result="shape"/>
</filter>
</defs>
</svg>
