<svg width="56" height="56" viewBox="0 0 56 56" fill="none" xmlns="http://www.w3.org/2000/svg">
<path d="M51.4857 34.2621C51.7812 33.7171 54.4882 28.5605 53.4346 24.533C52.1213 19.5152 45.8967 14.8472 41.7772 11.7615C40.477 10.7871 39.3548 9.94579 38.7857 9.38488C36.8835 7.50049 34.4611 6.89766 32.896 7.92117C31.4798 8.84638 31.1982 10.7965 32.1438 13.137C32.3088 13.5155 32.5164 13.8744 32.7625 14.2068L20.107 8.81169C19.2387 8.43265 18.2847 8.28777 17.3416 8.39173C15.8605 8.56954 15.2096 9.28007 14.9244 9.84531C14.5479 10.592 14.4785 11.4066 14.5267 12.1048C12.8485 11.6567 10.7202 11.7319 9.51629 13.7753C9.00116 14.6499 8.89391 15.5671 9.20619 16.4273C9.55569 17.3915 10.3678 18.1223 11.1354 18.629C10.2124 19.3374 9.39663 20.5351 9.39663 22.4144C9.39663 23.9432 11.042 25.0845 12.4451 25.7791C12.0151 26.1081 11.6704 26.5337 11.4396 27.0209C11.1718 27.6107 10.9843 28.5757 11.6169 29.8283C12.2911 31.1641 14.0977 31.9592 15.2469 32.3459C15.1119 32.4445 14.9851 32.5535 14.8674 32.6719C13.9715 33.5834 13.3673 35.3377 14.6157 37.2806C14.651 37.3356 14.6923 37.3865 14.739 37.4324L29.0589 51.4804C31.9795 54.352 35.9279 55.9629 40.0428 55.9618C40.504 55.9618 40.9661 55.9416 41.4291 55.9011C43.6854 55.7057 45.8713 55.024 47.8338 53.904C49.7963 52.7839 51.488 51.2524 52.7903 49.4167C53.9577 47.7723 54.6721 46.3982 54.9705 45.2164C55.8409 41.7715 53.7447 37.6912 51.4857 34.2621ZM16.5033 10.626C16.6697 10.2971 17.1665 10.1728 17.554 10.1265C18.1874 10.0596 18.8274 10.1594 19.4094 10.4156L36.901 17.8729C37.5957 18.2673 38.3351 18.5786 39.1038 18.8003C39.3199 18.8629 39.5519 18.8412 39.7524 18.7398C39.9529 18.6384 40.1067 18.4648 40.1822 18.2547C40.2578 18.0446 40.2494 17.8139 40.1588 17.6097C40.0681 17.4056 39.9022 17.2435 39.6948 17.1566L37.7175 16.3138C35.6628 15.1335 34.1021 13.27 33.7847 12.4829C33.174 10.9707 33.2061 9.80845 33.8701 9.37476C34.5764 8.9136 36.1028 9.19189 37.5409 10.6151C38.1925 11.2613 39.3044 12.0947 40.7126 13.1493C44.6366 16.0905 50.5671 20.5358 51.7265 24.9652C52.4102 27.5775 51.0735 31.0036 50.3453 32.5859C49.9674 32.0496 49.5982 31.5371 49.2509 31.0564C48.4008 29.8775 47.6661 28.8583 47.3429 28.2172C47.1035 27.7423 46.862 27.1828 46.6074 26.5908C45.68 24.4368 44.6293 21.9959 42.6673 21.2232C41.7531 20.8618 40.7572 20.9131 39.7043 21.3678C39.2722 21.5467 38.8862 21.8193 38.5745 22.1655C38.2629 22.5118 38.0336 22.9229 37.9035 23.3685C37.646 24.2207 37.7058 25.2124 37.9305 26.2085C37.1695 25.3917 36.3429 24.5106 35.4877 23.6432C29.825 17.8859 27.3515 16.921 26.0229 16.9434C26.0105 16.9376 25.9995 16.9289 25.9871 16.9239L16.4362 12.8732C16.2902 12.3051 16.1523 11.3235 16.5033 10.6289V10.626ZM10.8668 15.8368C10.7815 15.6018 10.7071 15.2238 11.0412 14.6571C12.2349 12.6332 15.16 14.209 15.2819 14.2762C15.3008 14.2863 15.3206 14.2935 15.3395 14.3029C15.3585 14.3123 15.357 14.3138 15.3665 14.3181L23.9456 17.9604C23.4713 18.5162 23.1649 19.234 22.9817 19.9518C22.3564 19.4689 21.5517 19.0157 20.6469 18.9022C19.6816 18.7793 18.7374 19.0634 17.9137 19.7168L12.8836 17.5151C12.7842 17.4719 12.6775 17.4474 12.5691 17.4429C11.8971 17.0728 11.1098 16.5025 10.8668 15.8368ZM11.1587 22.4101C11.1587 20.199 12.7238 19.6568 13.1601 19.5484L16.8083 21.1437C16.6896 21.4395 16.6202 21.7525 16.6025 22.0703C16.5449 23.1069 17.0199 24.0841 17.5591 24.846C17.1119 24.9611 16.6886 25.1532 16.3085 25.4134L14.8426 24.872L14.8273 24.8684L14.8091 24.8611C13.0842 24.2937 11.1609 23.1481 11.1609 22.4144L11.1587 22.4101ZM13.1922 29.0426C12.931 28.5251 12.8821 28.0986 13.0463 27.7416C13.3031 27.1705 14.051 26.7889 14.5121 26.6161L15.106 26.8366C14.7299 27.6458 14.5957 28.5448 14.7193 29.4272C14.7639 29.7453 14.8462 30.057 14.9645 30.356C14.1976 30.0141 13.4541 29.558 13.1951 29.0441L13.1922 29.0426ZM53.2602 44.7914C53.0187 45.7477 52.3759 46.9649 51.3493 48.4098C50.1894 50.0378 48.6852 51.3957 46.9414 52.389C45.1976 53.3823 43.2562 53.987 41.2525 54.1611C39.2487 54.3352 37.2307 54.0744 35.339 53.397C33.4474 52.7195 31.7275 51.6417 30.2993 50.2385L16.0546 36.2614C15.422 35.2162 15.6744 34.3546 16.1275 33.8899C16.4354 33.5776 16.7273 33.5407 16.793 33.579C16.9291 33.6619 17.0749 33.7282 17.2271 33.7764L25.2531 41.5322C25.4207 41.694 25.6463 41.7832 25.8803 41.7802C26.1142 41.7773 26.3375 41.6823 26.5008 41.5163C26.6641 41.3503 26.7542 41.1268 26.7512 40.895C26.7481 40.6632 26.6523 40.4421 26.4847 40.2803L18.199 32.2707C18.1027 32.1168 17.9881 31.9607 17.8714 31.8024C17.419 31.1894 16.5763 30.0481 16.4705 29.2096C16.3617 28.3466 16.569 27.571 17.0388 27.0824C17.4766 26.6291 18.1428 26.413 19.0227 26.4318L29.5193 36.3872C29.6902 36.5366 29.9128 36.6146 30.1405 36.605C30.3682 36.5954 30.5833 36.4988 30.7408 36.3356C30.8982 36.1723 30.9858 35.955 30.9851 35.7293C30.9844 35.5035 30.8955 35.2867 30.7371 35.1244L19.6327 24.5894C19.6261 24.5828 19.6181 24.5792 19.6115 24.5727C18.7944 23.7162 18.3274 22.8242 18.3631 22.1672C18.385 21.7718 18.5901 21.4227 18.9899 21.0981C19.4496 20.7259 19.9158 20.5755 20.4163 20.6363C21.5232 20.7729 22.5987 21.9157 22.919 22.3436C22.9647 22.4039 23.0182 22.4581 23.0781 22.5047C23.0941 22.5235 23.1072 22.5438 23.1247 22.5619L33.9963 33.3318C34.0783 33.413 34.1755 33.4774 34.2826 33.5213C34.3896 33.5652 34.5043 33.5878 34.6202 33.5878C34.736 33.5878 34.8508 33.5652 34.9578 33.5213C35.0648 33.4774 35.1621 33.413 35.244 33.3318C35.3259 33.2507 35.3909 33.1543 35.4353 33.0483C35.4796 32.9423 35.5024 32.8286 35.5024 32.7138C35.5024 32.5991 35.4796 32.4854 35.4353 32.3794C35.3909 32.2733 35.3259 32.177 35.244 32.0958L24.5271 21.4747C24.5935 20.5596 24.9175 18.8885 25.92 18.702C26.3636 18.6196 28.2782 18.8184 34.2167 24.8539C37.5198 28.2114 40.4062 31.7048 40.4354 31.7395C40.5775 31.9147 40.7823 32.0289 41.0072 32.0584C41.2321 32.088 41.4599 32.0305 41.6431 31.898C41.8264 31.7655 41.951 31.5681 41.9912 31.3469C42.0314 31.1257 41.984 30.8977 41.8589 30.7102C41.0337 29.4518 39.0184 25.7712 39.5919 23.8738C39.648 23.6712 39.7512 23.4844 39.893 23.3283C40.0349 23.1722 40.2116 23.0511 40.4091 22.9746C41.0227 22.7086 41.5481 22.6688 42.0143 22.8517C43.2963 23.3577 44.2324 25.5312 44.9854 27.2797C45.251 27.897 45.502 28.4803 45.7654 29.0029C46.1506 29.7662 46.8854 30.7861 47.8157 32.0763C50.3643 35.6196 54.2248 40.9691 53.2602 44.7914Z" fill="url(#paint0_linear)"/>
<path d="M28.4567 10.8438C28.5278 11.0616 28.6823 11.243 28.887 11.3492C29.0917 11.4553 29.3303 11.4776 29.5514 11.4113C29.7726 11.3451 29.9586 11.1955 30.0697 10.9948C30.1807 10.794 30.2077 10.5582 30.1451 10.3379L28.491 4.95358C28.4199 4.7358 28.2654 4.55436 28.0607 4.44824C27.856 4.34212 27.6174 4.3198 27.3962 4.38607C27.1751 4.45234 26.989 4.60192 26.878 4.80265C26.767 5.00338 26.7399 5.23925 26.8026 5.45955L28.4567 10.8438Z" fill="url(#paint1_linear)"/>
<path d="M9.14637 29.995C9.38023 30.0019 9.60727 29.9165 9.77756 29.7576C9.94785 29.5986 10.0474 29.3792 10.0544 29.1475C10.0614 28.9158 9.97515 28.6909 9.81471 28.5222C9.65427 28.3535 9.43276 28.2549 9.1989 28.248L1.25388 27.7745C1.02022 27.7606 0.790549 27.8392 0.615402 27.9931C0.440255 28.147 0.333977 28.3634 0.319947 28.5949C0.305918 28.8264 0.385286 29.0539 0.540592 29.2274C0.695898 29.4009 0.914419 29.5062 1.14808 29.5201L9.0931 29.9936L9.14637 29.995Z" fill="url(#paint2_linear)"/>
<path d="M32.6095 5.25922C33.1345 5.25922 33.6477 5.105 34.0842 4.81605C34.5207 4.52711 34.861 4.11642 35.0619 3.63592C35.2628 3.15542 35.3153 2.6267 35.2129 2.1166C35.1105 1.60651 34.8577 1.13795 34.4865 0.770196C34.1152 0.402438 33.6423 0.151992 33.1274 0.0505283C32.6124 -0.0509358 32.0787 0.00113964 31.5937 0.200169C31.1087 0.399198 30.6941 0.736242 30.4024 1.16868C30.1108 1.60112 29.9551 2.10952 29.9551 2.62961C29.9559 3.32679 30.2358 3.9952 30.7334 4.48818C31.231 4.98116 31.9057 5.25846 32.6095 5.25922ZM32.6095 1.74777C32.7856 1.74777 32.9577 1.79949 33.104 1.89639C33.2504 1.99329 33.3645 2.13101 33.4319 2.29215C33.4993 2.45328 33.5169 2.63059 33.4825 2.80165C33.4482 2.97271 33.3634 3.12984 33.2389 3.25317C33.1144 3.37649 32.9558 3.46048 32.7832 3.49451C32.6105 3.52853 32.4315 3.51107 32.2689 3.44432C32.1062 3.37758 31.9672 3.26455 31.8694 3.11953C31.7715 2.97452 31.7193 2.80402 31.7193 2.62961C31.7195 2.39579 31.8134 2.17161 31.9803 2.00627C32.1472 1.84093 32.3735 1.74797 32.6095 1.74777Z" fill="url(#paint3_linear)"/>
<path d="M11.1628 33.2994L8.62727 32.9437C8.51258 32.9276 8.3958 32.934 8.28361 32.9626C8.17141 32.9912 8.06599 33.0413 7.97338 33.1103C7.78633 33.2495 7.66276 33.4566 7.62986 33.6861C7.59696 33.9155 7.65743 34.1486 7.79796 34.3339C7.93849 34.5192 8.14757 34.6416 8.3792 34.6742L9.84649 34.8802L9.28759 36.453C9.24927 36.5613 9.23285 36.6761 9.23928 36.7906C9.2457 36.9052 9.27485 37.0175 9.32506 37.1209C9.37526 37.2243 9.44554 37.3169 9.53188 37.3935C9.61822 37.47 9.71893 37.5289 9.82825 37.5669C9.93758 37.6049 10.0534 37.6211 10.1691 37.6147C10.2847 37.6084 10.398 37.5795 10.5024 37.5298C10.6068 37.48 10.7003 37.4104 10.7776 37.3249C10.8548 37.2393 10.9143 37.1396 10.9526 37.0313L11.869 34.4523C11.9124 34.3302 11.928 34.2001 11.9145 34.0714C11.901 33.9427 11.8589 33.8185 11.7911 33.7079C11.7233 33.5973 11.6316 33.5029 11.5226 33.4316C11.4135 33.3604 11.2899 33.314 11.1606 33.2958L11.1628 33.2994Z" fill="url(#paint4_linear)"/>
<path d="M46.0579 47.5368L44.352 48.5762C42.9695 49.4267 41.3463 49.8111 39.7251 49.6721C38.1038 49.5331 36.5715 48.8781 35.357 47.805C35.1805 47.6609 34.9545 47.5904 34.7265 47.6083C34.4986 47.6262 34.2865 47.7311 34.1351 47.9009C33.9837 48.0707 33.9048 48.292 33.9149 48.5184C33.9251 48.7447 34.0236 48.9582 34.1896 49.114C35.6868 50.4374 37.5762 51.2451 39.5753 51.4164C41.5743 51.5878 43.5757 51.1135 45.2801 50.0645L46.986 49.0251C47.1852 48.9032 47.3274 48.7078 47.3812 48.4821C47.4351 48.2563 47.3962 48.0186 47.2731 47.8212C47.15 47.6239 46.9528 47.483 46.7249 47.4297C46.4971 47.3763 46.2571 47.4149 46.0579 47.5368Z" fill="url(#paint5_linear)"/>
<defs>
<linearGradient id="paint0_linear" x1="32.1016" y1="7.42676" x2="32.1016" y2="55.9618" gradientUnits="userSpaceOnUse">
<stop stop-color="#CD353D"/>
<stop offset="1" stop-color="#EEA259"/>
</linearGradient>
<linearGradient id="paint1_linear" x1="28.4738" y1="4.34863" x2="28.4738" y2="11.4488" gradientUnits="userSpaceOnUse">
<stop stop-color="#CD353D"/>
<stop offset="1" stop-color="#EEA259"/>
</linearGradient>
<linearGradient id="paint2_linear" x1="5.18658" y1="27.7729" x2="5.18658" y2="29.9954" gradientUnits="userSpaceOnUse">
<stop stop-color="#CD353D"/>
<stop offset="1" stop-color="#EEA259"/>
</linearGradient>
<linearGradient id="paint3_linear" x1="32.6095" y1="0" x2="32.6095" y2="5.25922" gradientUnits="userSpaceOnUse">
<stop stop-color="#CD353D"/>
<stop offset="1" stop-color="#EEA259"/>
</linearGradient>
<linearGradient id="paint4_linear" x1="9.77015" y1="32.9351" x2="9.77015" y2="37.6161" gradientUnits="userSpaceOnUse">
<stop stop-color="#CD353D"/>
<stop offset="1" stop-color="#EEA259"/>
</linearGradient>
<linearGradient id="paint5_linear" x1="40.6595" y1="47.4062" x2="40.6595" y2="51.4507" gradientUnits="userSpaceOnUse">
<stop stop-color="#CD353D"/>
<stop offset="1" stop-color="#EEA259"/>
</linearGradient>
</defs>
</svg>
